<?xml version="1.0" standalone="no"?>
<!DOCTYPE svg PUBLIC "-//W3C//DTD SVG 1.1//EN" "http://www.w3.org/Graphics/SVG/1.1/DTD/svg11.dtd" >
<svg xmlns="http://www.w3.org/2000/svg">
<metadata>Generated by IcoMoon</metadata>
<defs>
<font id="icomoon" horiz-adv-x="1024">
<font-face units-per-em="1024" ascent="960" descent="-64" />
<missing-glyph horiz-adv-x="1024" />
<glyph unicode="&#x20;" horiz-adv-x="512" d="" />
<glyph unicode="&#xe900;" glyph-name="bus" d="M314.304 329.762c-48.524 0-88-39.476-88-88s39.476-88 88-88c48.524 0 88 39.476 88 88s-39.476 88-88 88zM314.304 193.762c-26.466 0-48 21.534-48 48s21.534 48 48 48c26.466 0 48-21.534 48-48s-21.534-48-48-48zM914.502 742.232h-102.502c-11.046 0-20-8.954-20-20s8.954-20 20-20h102.502c31.982 0 58.968-21.72 67.030-51.18h-169.532c-11.046 0-20-8.954-20-20v-179.83c0-11.046 8.954-20 20-20h172v-169.828h-58.684c-8.948 39.098-43.992 68.366-85.764 68.366s-76.816-29.266-85.764-68.366h-1.788v369.482c0 11.046-8.954 20-20 20h-160c-11.046 0-20-8.954-20-20v-160.644h-371.334c-11.046 0-20-8.954-20-20s8.954-20 20-20h371.334v-168.834h-102c-11.046 0-20-8.954-20-20s8.954-20 20-20h303.956c9.216-38.732 44.082-67.634 85.596-67.634s76.38 28.902 85.596 67.634h78.852c11.046 0 20 8.954 20 20v391.336c0 60.378-49.12 109.498-109.498 109.498zM712 456.054h-12.642c-11.046 0-20-8.954-20-20s8.954-20 20-20h12.642v-154.656h-120v349.478h120v-154.822zM839.55 193.762c-26.466 0-48 21.534-48 48s21.534 48 48 48c26.466 0 48-21.534 48-48s-21.532-48-48-48zM984 471.224h-152v139.83h152v-139.83zM746.14 736.378c-3.72 3.72-8.88 5.86-14.14 5.86s-10.42-2.14-14.14-5.86c-3.72-3.72-5.86-8.88-5.86-14.14s2.14-10.42 5.86-14.14c3.72-3.72 8.88-5.86 14.14-5.86s10.42 2.14 14.14 5.86 5.86 8.88 5.86 14.14-2.14 10.42-5.86 14.14zM652 742.232h-542.502c-54.828 0-100.366-40.51-108.274-93.17-0.778-2.134-1.224-4.428-1.224-6.83v-400.834c0-11.046 8.954-20 20-20h150.556c11.046 0 20 8.954 20 20s-8.954 19.998-20 19.998h-130.556v248.836h68c11.046 0 20 8.954 20 20v112c0 11.046-8.954 20-20 20h-61.412c11.116 23.612 35.128 40 62.908 40h542.504c11.046 0 20 8.954 20 20s-8.954 20-20 20zM88 622.232v-72h-48v72h48zM122.14 464.378c-3.72 3.72-8.88 5.86-14.14 5.86s-10.42-2.14-14.14-5.86-5.86-8.88-5.86-14.14c0-5.28 2.14-10.42 5.86-14.14 3.72-3.74 8.88-5.86 14.14-5.86s10.42 2.12 14.14 5.86c3.72 3.72 5.86 8.88 5.86 14.14s-2.14 10.42-5.86 14.14zM492 662.232h-112c-11.046 0-20-8.954-20-20v-112c0-11.046 8.954-20 20-20h112c11.046 0 20 8.954 20 20v112c0 11.046-8.954 20-20 20zM472 550.232h-72v72h72v-72zM300 662.232h-112c-11.046 0-20-8.954-20-20v-112c0-11.046 8.954-20 20-20h112c11.046 0 20 8.954 20 20v112c0 11.046-8.954 20-20 20zM280 550.232h-72v72h72v-72z" />
<glyph unicode="&#xe901;" glyph-name="steering-wheel" d="M598.866 445.378c-3.7 8.474-13.57 12.344-22.044 8.644-8.474-3.698-12.342-13.568-8.644-22.040 3.384-7.75 5.1-15.988 5.1-24.482 0-33.792-27.49-61.28-61.28-61.28-33.792 0-61.28 27.49-61.28 61.28s27.49 61.28 61.28 61.28c5.51 0 11.016-0.75 16.368-2.23 8.912-2.462 18.134 2.768 20.596 11.676 2.464 8.912-2.766 18.134-11.676 20.596-8.256 2.282-16.764 3.44-25.288 3.44-52.254 0-94.764-42.51-94.764-94.764s42.51-94.764 94.764-94.764 94.764 42.51 94.764 94.764c0.002 13.136-2.654 25.878-7.896 37.88zM325.218 343.35c-3.178 7.492-5.63 15.242-7.288 23.036l-18.088 85.094c-1.642 7.732-8.472 13.26-16.376 13.26h-143.952c-9.246 0-16.742-7.494-16.742-16.742 0-80.434 24.452-157.702 70.708-223.454 2.844-4.042 7.328-6.62 12.252-7.048 0.482-0.042 0.962-0.060 1.442-0.060 4.418 0 8.686 1.75 11.838 4.902l102.632 102.632c4.826 4.828 6.238 12.098 3.574 18.38zM209.81 260.494c-32.158 51.572-50.346 109.966-53.166 170.764h113.264l15.268-71.832c1.32-6.204 3.030-12.376 5.114-18.452l-80.48-80.48zM874.038 810.038c-96.704 96.704-225.278 149.962-362.038 149.962-119.738 0-236.23-42.222-328.018-118.892-7.096-5.926-8.044-16.484-2.116-23.578 5.926-7.098 16.488-8.044 23.582-2.116 85.776 71.644 194.644 111.102 306.552 111.102 127.816 0 247.984-49.774 338.362-140.154 90.38-90.38 140.154-210.546 140.154-338.364 0-158.032-77.984-305.75-208.606-395.15-7.63-5.224-9.58-15.642-4.36-23.274 3.246-4.74 8.494-7.288 13.834-7.288 3.256 0 6.55 0.95 9.44 2.928 139.744 95.65 223.176 253.698 223.176 422.786 0 136.76-53.258 265.334-149.962 362.038zM747.234 161.964l-107.218 107.218c-4.486 4.484-11.13 6.048-17.148 4.040-12.906-4.318-26.324-6.504-39.88-6.504h-141.978c-13.554 0-26.972 2.188-39.88 6.504-6.018 2.008-12.658 0.446-17.146-4.040l-107.218-107.218c-3.428-3.43-5.204-8.178-4.862-13.016s2.764-9.29 6.638-12.206c67.848-51.010 148.576-77.974 233.456-77.974s165.61 26.962 233.456 77.974c3.878 2.916 6.3 7.368 6.64 12.206s-1.428 9.586-4.86 13.016zM512 92.254c-71.084 0-138.986 20.698-197.558 60.036l86.166 86.168c13.194-3.468 26.74-5.222 40.404-5.222h141.978c13.662 0 27.208 1.752 40.404 5.222l86.168-86.168c-58.576-39.338-126.478-60.036-197.562-60.036zM884.486 464.742h-143.95c-7.904 0-14.732-5.53-16.376-13.26l-18.090-85.092c-1.658-7.8-4.11-15.55-7.288-23.034-2.666-6.282-1.254-13.554 3.574-18.38l102.632-102.632c3.154-3.154 7.418-4.904 11.838-4.904 0.48 0 0.96 0.020 1.442 0.060 4.924 0.426 9.408 3.006 12.252 7.048 46.258 65.748 70.708 143.016 70.708 223.454 0 9.246-7.496 16.74-16.742 16.74zM814.192 260.494l-80.482 80.482c2.082 6.072 3.794 12.246 5.114 18.45l15.27 71.832h113.264c-2.82-60.8-21.008-119.194-53.166-170.764zM881.532 570.288c-25.544 76.998-73.794 143.232-139.54 191.546-67.124 49.322-146.652 75.394-229.992 75.394s-162.866-26.072-229.992-75.396c-65.746-48.314-113.996-114.546-139.54-191.546-1.692-5.102-0.83-10.71 2.318-15.070s8.196-6.942 13.574-6.942h707.28c5.378 0 10.426 2.582 13.574 6.942s4.010 9.968 2.318 15.072zM182.358 581.758c24.76 60.996 65.724 113.59 119.48 153.092 61.334 45.070 134.006 68.896 210.162 68.896s148.828-23.824 210.162-68.896c53.756-39.502 94.72-92.096 119.48-153.092h-659.284zM746.658 11.472c-4.108 8.284-14.15 11.67-22.436 7.564-66.33-32.88-137.732-49.552-212.224-49.552-127.816 0-247.982 49.776-338.362 140.154-90.378 90.378-140.152 210.546-140.152 338.362 0 119.75 44.458 234.348 125.192 322.692 6.236 6.826 5.762 17.416-1.068 23.652-6.826 6.242-17.414 5.76-23.652-1.064-86.38-94.53-133.956-217.154-133.956-345.28 0-136.76 53.258-265.334 149.962-362.038s225.28-149.962 362.038-149.962c79.696 0 156.1 17.844 227.094 53.036 8.284 4.106 11.67 14.152 7.564 22.436z" />
</font></defs></svg>